vhdl/clock_div.vcd
$date
  Fri Nov 27 00:18:55 2020
$end
$version
  GHDL v0
$end
$timescale
  1 fs
$end
$scope module standard $end
$upscope $end
$scope module std_logic_1164 $end
$upscope $end
$scope module numeric_std $end
$upscope $end
$scope module clock_div4_tb $end
$var reg 1 ! clk $end
$var reg 1 " clock $end
$var reg 1 # clock_90 $end
$scope module clockdiv4 $end
$var reg 1 $ clock_in $end
$var reg 1 % clock_div4_0 $end
$var reg 1 & clock_div4_90 $end
$var reg 1 ' div2 $end
$var reg 1 ( div4_0 $end
$var reg 1 ) div4_90 $end
$upscope $end
$upscope $end
$enddefinitions $end
#0
1!
0"
0#
1$
0%
0&
0'
0(
0)
#5000000
0!
0$
#10000000
1!
1"
1$
1%
1'
1(
#15000000
0!
0$
#20000000
1!
1#
1$
1&
0'
1)
#25000000
0!
0$
#30000000
1!
0"
1$
0%
1'
0(
#35000000
0!
0$
#40000000
1!
0#
1$
0&
0'
0)
#45000000
0!
0$
#50000000
1!
1"
1$
1%
1'
1(
#55000000
0!
0$
#60000000
1!
1#
1$
1&
0'
1)
#65000000
0!
0$
#70000000
1!
0"
1$
0%
1'
0(
#75000000
0!
0$
#80000000
1!
0#
1$
0&
0'
0)
#85000000
0!
0$
#90000000
1!
1"
1$
1%
1'
1(
#95000000
0!
0$
#100000000
1!
1#
1$
1&
0'
1)
#105000000
0!
0$
#110000000
1!
0"
1$
0%
1'
0(
#115000000
0!
0$
#120000000
1!
0#
1$
0&
0'
0)
#125000000
0!
0$
#130000000
1!
1"
1$
1%
1'
1(
#135000000
0!
0$
#140000000
1!
1#
1$
1&
0'
1)
#145000000
0!
0$
#150000000
1!
0"
1$
0%
1'
0(
#155000000
0!
0$
#160000000
1!
0#
1$
0&
0'
0)
#165000000
0!
0$
#170000000
1!
1"
1$
1%
1'
1(
#175000000
0!
0$
#180000000
1!
1#
1$
1&
0'
1)
#185000000
0!
0$
#190000000
1!
0"
1$
0%
1'
0(
#195000000
0!
0$
#200000000
1!
0#
1$
0&
0'
0)
#205000000
0!
0$
#210000000
1!
1"
1$
1%
1'
1(
#215000000
0!
0$
#220000000
1!
1#
1$
1&
0'
1)
#225000000
0!
0$
#230000000
1!
0"
1$
0%
1'
0(
#235000000
0!
0$
#240000000
1!
0#
1$
0&
0'
0)
#245000000
0!
0$
#250000000
1!
1"
1$
1%
1'
1(
#255000000
0!
0$
#260000000
1!
1#
1$
1&
0'
1)
#265000000
0!
0$
#270000000
1!
0"
1$
0%
1'
0(
#275000000
0!
0$
#280000000
1!
0#
1$
0&
0'
0)
#285000000
0!
0$
#290000000
1!
1"
1$
1%
1'
1(
#295000000
0!
0$
#300000000
1!
1#
1$
1&
0'
1)
#305000000
0!
0$
#310000000
1!
0"
1$
0%
1'
0(
#315000000
0!
0$
#320000000
1!
0#
1$
0&
0'
0)
#325000000
0!
0$
#330000000
1!
1"
1$
1%
1'
1(
#335000000
0!
0$
#340000000
1!
1#
1$
1&
0'
1)
#345000000
0!
0$
#350000000
1!
0"
1$
0%
1'
0(
#355000000
0!
0$
#360000000
1!
0#
1$
0&
0'
0)
#365000000
0!
0$
#370000000
1!
1"
1$
1%
1'
1(
#375000000
0!
0$
#380000000
1!
1#
1$
1&
0'
1)
#385000000
0!
0$
#390000000
1!
0"
1$
0%
1'
0(
#395000000
0!
0$
#400000000
1!
0#
1$
0&
0'
0)
#405000000
0!
0$
#410000000
1!
1"
1$
1%
1'
1(
#415000000
0!
0$
#420000000
1!
1#
1$
1&
0'
1)
#425000000
0!
0$
#430000000
1!
0"
1$
0%
1'
0(
#435000000
0!
0$
#440000000
1!
0#
1$
0&
0'
0)
#445000000
0!
0$
#450000000
1!
1"
1$
1%
1'
1(
#455000000
0!
0$
#460000000
1!
1#
1$
1&
0'
1)
#465000000
0!
0$
#470000000
1!
0"
1$
0%
1'
0(
#475000000
0!
0$
#480000000
1!
0#
1$
0&
0'
0)
#485000000
0!
0$
#490000000
1!
1"
1$
1%
1'
1(
#495000000
0!
0$
#500000000
1!
1#
1$
1&
0'
1)
